MyLabJournal – 02 Supervised ML
…
...
and 36 more lines.

bike_fit %>% 
  pull_workflow_fit() %>% 
  tidy()

Warning: `pull_workflow_fit()` was deprecated in workflows 0.2.3.
ℹ Please use `extract_fit_parsnip()` instead.

# A tibble: 77 × 5
   term             estimate  std.error  statistic p.value
   <chr>               <dbl>      <dbl>      <dbl>   <dbl>
 1 (Intercept)      -7.10e15 382610833. -18547332.       0
 2 id                5.19e13   1533091.  33859076.       0
 3 weight           -3.28e14   8533689. -38421625.       0
 4 price             5.23e11      7712.  67793787.       0
 5 shimano_dura_ace  3.52e15  98409654.  35813002.       0
 6 shimano_ultegra   4.76e15  94258305.  50550306.       0
 7 shimano_105       4.36e15  95577126.  45597201.       0
 8 shimano_tiagra    4.25e14 104733514.   4062495.       0
 9 shimano_deore    -6.41e14  42457163. -15086316.       0
10 shimano_slx      -1.34e15  60335831. -22220949.       0
# ℹ 67 more rows
…
bike_pred

# A tibble: 47 × 4
   .pred_aluminium .pred_carbon frame_material category_2
             <dbl>        <dbl> <fct>          <chr>     
 1        2.22e-16     1   e+ 0 carbon         Race      
 2        2.22e-16     1   e+ 0 carbon         Race      
 3        2.22e-16     1   e+ 0 carbon         Race      
 4        2.22e-16     1   e+ 0 carbon         Race      
 5        1   e+ 0     2.22e-16 aluminium      Endurance 
 6        2.22e-16     1   e+ 0 carbon         Endurance 
 7        2.22e-16     1   e+ 0 carbon         Endurance 
 8        2.22e-16     1   e+ 0 carbon         Endurance 
 9        2.22e-16     1   e+ 0 carbon         Endurance 
10        2.22e-16     1   e+ 0 carbon         Endurance 
# ℹ 37 more rows
…
