MyLabJournal – 03 Automated Machine Learning with H20
…
# Business case study Challenge 1

# Libraries 
library(tidyverse)
library(readxl)
library(skimr)
library(GGally)
library(rsample)
# Load Data data definitions
employee_attrition_tbl <- read_csv("C:/Users/risho/OneDrive/Desktop/internship_sparks/ss24-bdml-rishon1234/ML/data/Business Decisions with Machine Learning/datasets-1067-1925-WA_Fn-UseC_-HR-Employee-Attrition.csv")
path_data_definitions <- "C:/Users/risho/OneDrive/Desktop/internship_sparks/ss24-bdml-rishon1234/ML/data/Business Decisions with Machine Learning/data_definitions.xlsx"
definitions_raw_tbl   <- read_excel(path_data_definitions, sheet = 1, col_names = FALSE)
employee_attrition_tbl

# A tibble: 1,470 × 35
     Age Attrition BusinessTravel    DailyRate Department       DistanceFromHome
   <dbl> <chr>     <chr>                 <dbl> <chr>                       <dbl>
 1    41 Yes       Travel_Rarely          1102 Sales                           1
 2    49 No        Travel_Frequently       279 Research & Deve…                8
 3    37 Yes       Travel_Rarely          1373 Research & Deve…                2
 4    33 No        Travel_Frequently      1392 Research & Deve…                3
 5    27 No        Travel_Rarely           591 Research & Deve…                2
 6    32 No        Travel_Frequently      1005 Research & Deve…                2
 7    59 No        Travel_Rarely          1324 Research & Deve…                3
 8    30 No        Travel_Rarely          1358 Research & Deve…               24
 9    38 No        Travel_Frequently       216 Research & Deve…               23
10    36 No        Travel_Rarely          1299 Research & Deve…               27
# ℹ 1,460 more rows
# ℹ 29 more variables: Education <dbl>, EducationField <chr>,
#   EmployeeCount <dbl>, EmployeeNumber <dbl>, EnvironmentSatisfaction <dbl>,
#   Gender <chr>, HourlyRate <dbl>, JobInvolvement <dbl>, JobLevel <dbl>,
#   JobRole <chr>, JobSatisfaction <dbl>, MaritalStatus <chr>,
#   MonthlyIncome <dbl>, MonthlyRate <dbl>, NumCompaniesWorked <dbl>,
#   Over18 <chr>, OverTime <chr>, PercentSalaryHike <dbl>, …
…
dept_job_role_tbl %>%
  count(Department, JobRole, Attrition) %>%
  count_to_pct(Department, JobRole)  

# A tibble: 21 × 5
   Department             JobRole                   Attrition     n    pct
   <chr>                  <chr>                     <chr>     <int>  <dbl>
 1 Human Resources        Human Resources           No           40 0.769 
 2 Human Resources        Human Resources           Yes          12 0.231 
 3 Human Resources        Manager                   No           11 1     
 4 Research & Development Healthcare Representative No          122 0.931 
 5 Research & Development Healthcare Representative Yes           9 0.0687
 6 Research & Development Laboratory Technician     No          197 0.761 
 7 Research & Development Laboratory Technician     Yes          62 0.239 
 8 Research & Development Manager                   No           51 0.944 
 9 Research & Development Manager                   Yes           3 0.0556
10 Research & Development Manufacturing Director    No          135 0.931 
# ℹ 11 more rows
…
split_obj<- initial_split(product_data2, prop = 0.75)
train_tbl<- training(split_obj)
test_tbl<- testing(split_obj)

## Specifiy the response and predictor variables
recipe_obj <- recipe(product_backorder ~., data = train_tbl) %>% 
  step_zv(all_predictors()) %>% 
  step_dummy(all_nominal(),-all_outcomes()) %>%
  prep()

summary(recipe_obj)

# A tibble: 23 × 4
   variable         type      role      source  
   <chr>            <list>    <chr>     <chr>   
 1 sku              <chr [2]> predictor original
 2 national_inv     <chr [2]> predictor original
 3 lead_time        <chr [2]> predictor original
 4 in_transit_qty   <chr [2]> predictor original
 5 forecast_3_month <chr [2]> predictor original
 6 forecast_6_month <chr [2]> predictor original
 7 forecast_9_month <chr [2]> predictor original
 8 sales_1_month    <chr [2]> predictor original
 9 sales_3_month    <chr [2]> predictor original
10 sales_6_month    <chr [2]> predictor original
# ℹ 13 more rows
…
