MyLabJournal – 05 LIME
…
  |                                                                            
  |                                                                      |   0%
  |                                                                            
  |======================================================================| 100%

  |                                                                            
  |                                                                      |   0%
  |                                                                            
  |======================================================================| 100%

predictions_tbl

# A tibble: 4,764 × 24
   predict     sku national_inv lead_time in_transit_qty forecast_3_month
     <dbl>   <dbl>        <dbl>     <dbl>          <dbl>            <dbl>
 1   0.553 1113121            0         8              1                6
 2   0.858 1115620          -34         8              0              120
 3   0.844 1116868           -7         8              0               56
 4   0.749 1117565            2         8              0                5
 5   0.825 1118984            0        12              0                4
 6   0.664 1120320            1         2              1                3
 7   0.682 1120866            4        12              0                0
 8   0.496 1122461            0         2              0                5
 9   0.824 1122487            1         8              0               10
10   0.661 1124321            0        12              0              163
# ℹ 4,754 more rows
# ℹ 18 more variables: forecast_6_month <dbl>, forecast_9_month <dbl>,
#   sales_1_month <dbl>, sales_3_month <dbl>, sales_6_month <dbl>,
#   sales_9_month <dbl>, min_bank <dbl>, potential_issue <chr>,
#   pieces_past_due <dbl>, perf_6_month_avg <dbl>, perf_12_month_avg <dbl>,
#   local_bo_qty <dbl>, deck_risk <chr>, oe_constraint <chr>, ppap_risk <chr>,
#   stop_auto_buy <chr>, rev_stop <chr>, product_backorder <dbl>
…
  |                                                                            
  |                                                                      |   0%
  |                                                                            
  |======================================================================| 100%

  |                                                                            
  |                                                                      |   0%
  |                                                                            
  |======================================================================| 100%

explanation_multi %>%
  as.tibble()

# A tibble: 160 × 11
   model_type case  model_r2 model_intercept model_prediction feature         
   <chr>      <chr>    <dbl>           <dbl>            <dbl> <chr>           
 1 regression 1        0.514           0.754            0.462 national_inv    
 2 regression 1        0.514           0.754            0.462 forecast_3_month
 3 regression 1        0.514           0.754            0.462 in_transit_qty  
 4 regression 1        0.514           0.754            0.462 sku             
 5 regression 1        0.514           0.754            0.462 potential_issue 
 6 regression 1        0.514           0.754            0.462 forecast_6_month
 7 regression 1        0.514           0.754            0.462 rev_stop        
 8 regression 1        0.514           0.754            0.462 min_bank        
 9 regression 2        0.499           0.350            0.627 national_inv    
10 regression 2        0.499           0.350            0.627 forecast_3_month
# ℹ 150 more rows
# ℹ 5 more variables: feature_value <chr>, feature_weight <dbl>,
#   feature_desc <chr>, data <list>, prediction <dbl>
…
