MyLabJournal – 02 Supervised ML
…
1 Libraries

library(tidymodels)
library(tidyverse)
library(recipes)
library(rsample)
library(yardstick)

2 Data

bike_features_tbl <- readRDS("C:/Users/risho/OneDrive/Desktop/internship_sparks/ss24-bdml-rishon1234/ML/data/Business Decisions with Machine Learning/bike_features_tbl.rds")
bike_features_tbl |> as_tibble() |> print()

#> # A tibble: 231 × 67
#>    bike_id model    model_year frame_material weight price category_1 category_2
#>      <dbl> <chr>         <dbl> <chr>           <dbl> <dbl> <chr>      <chr>     
#>  1    2875 Aeroad …       2020 carbon           7.6   4579 Road       Race      
#>  2    2873 Aeroad …       2020 carbon           7.27  6919 Road       Race      
#>  3    2874 Aeroad …       2020 carbon           7.1   6429 Road       Race      
#>  4    2876 Aeroad …       2020 carbon           7.73  5069 Road       Race      
#>  5    2877 Aeroad …       2020 carbon           7.83  3609 Road       Race      
#>  6    2225 Aeroad …       2019 carbon           6.8   6139 Road       Race      
#>  7    2091 Aeroad …       2019 carbon           6.8   5359 Road       Race      
#>  8    2086 Aeroad …       2021 carbon           7.6   2629 Road       Race      
#>  9    2088 Aeroad …       2020 carbon           7.3   3699 Road       Race      
#> 10    2120 Aeroad …       2020 carbon           7.2   3219 Road       Race      
#> # ℹ 221 more rows
#> # ℹ 59 more variables: category_3 <chr>, gender <chr>, url <chr>, Frame <chr>,
#> #   Fork <chr>, `Rear Derailleur` <chr>, `Front Derailleur` <chr>,
#> #   Cassette <chr>, Crank <chr>, `Bottom bracket` <chr>, `Thru Axle` <chr>,
#> #   Cockpit <chr>, Saddle <chr>, Seatpost <chr>, Pedals <chr>,
#> #   `Derailleur hanger` <chr>, Battery <chr>, Brake <chr>, `Shift Lever` <chr>,
#> #   Chain <chr>, Stem <chr>, Handlebar <chr>, Headset <chr>, Motor <chr>, …

Transform dataset

bike_features_trafo_tbl <- bike_features_tbl %>% 
    select(model:url, `Rear Derailleur`, `Shift Lever`) %>%
    mutate_if(is.numeric, ~replace(., is.na(.), 0)) %>%
    mutate(id = row_number()) %>% 
    select(id, everything(), -url)
bike_features_trafo_tbl |> as_tibble() |> print()

#> # A tibble: 231 × 12
#>       id model      model_year frame_material weight price category_1 category_2
#>    <int> <chr>           <dbl> <chr>           <dbl> <dbl> <chr>      <chr>     
#>  1     1 Aeroad CF…       2020 carbon           7.6   4579 Road       Race      
#>  2     2 Aeroad CF…       2020 carbon           7.27  6919 Road       Race      
#>  3     3 Aeroad CF…       2020 carbon           7.1   6429 Road       Race      
#>  4     4 Aeroad CF…       2020 carbon           7.73  5069 Road       Race      
#>  5     5 Aeroad CF…       2020 carbon           7.83  3609 Road       Race      
#>  6     6 Aeroad CF…       2019 carbon           6.8   6139 Road       Race      
#>  7     7 Aeroad CF…       2019 carbon           6.8   5359 Road       Race      
#>  8     8 Aeroad CF…       2021 carbon           7.6   2629 Road       Race      
#>  9     9 Aeroad CF…       2020 carbon           7.3   3699 Road       Race      
#> 10    10 Aeroad WM…       2020 carbon           7.2   3219 Road       Race      
#> # ℹ 221 more rows
#> # ℹ 4 more variables: category_3 <chr>, gender <chr>, `Rear Derailleur` <chr>,
#> #   `Shift Lever` <chr>
…
