MyLabJournal – 05 LIME
…
  |                                                                            
  |                                                                      |   0%
  |                                                                            
  |======================================================================| 100%

  |                                                                            
  |                                                                      |   0%
  |                                                                            
  |======================================================================| 100%

predictions_tbl

# A tibble: 4,764 × 24
   predict     sku national_inv lead_time in_transit_qty forecast_3_month
     <dbl>   <dbl>        <dbl>     <dbl>          <dbl>            <dbl>
 1  0.355  1115453           55         8              0              216
 2  0.904  1116446            4         9              0               43
 3  0.288  1117011            1         8              0                2
 4  0.682  1120866            4        12              0                0
 5  0.0670 1120868            7         8              0                0
 6  0.928  1121942            0         2              0             1200
 7  0.447  1122449            1         2              0                0
 8  0.496  1122461            0         2              0                5
 9  0.720  1124935            4         8              1               20
10  0.661  1125285            2         2              0                0
# ℹ 4,754 more rows
# ℹ 18 more variables: forecast_6_month <dbl>, forecast_9_month <dbl>,
#   sales_1_month <dbl>, sales_3_month <dbl>, sales_6_month <dbl>,
#   sales_9_month <dbl>, min_bank <dbl>, potential_issue <chr>,
#   pieces_past_due <dbl>, perf_6_month_avg <dbl>, perf_12_month_avg <dbl>,
#   local_bo_qty <dbl>, deck_risk <chr>, oe_constraint <chr>, ppap_risk <chr>,
#   stop_auto_buy <chr>, rev_stop <chr>, product_backorder <dbl>
…
  |                                                                            
  |                                                                      |   0%
  |                                                                            
  |======================================================================| 100%

  |                                                                            
  |                                                                      |   0%
  |                                                                            
  |======================================================================| 100%

explanation_multi %>%
  as.tibble()

# A tibble: 160 × 11
   model_type case  model_r2 model_intercept model_prediction feature         
   <chr>      <chr>    <dbl>           <dbl>            <dbl> <chr>           
 1 regression 1        0.274          0.0786            0.594 forecast_3_month
 2 regression 1        0.274          0.0786            0.594 rev_stop        
 3 regression 1        0.274          0.0786            0.594 oe_constraint   
 4 regression 1        0.274          0.0786            0.594 pieces_past_due 
 5 regression 1        0.274          0.0786            0.594 sku             
 6 regression 1        0.274          0.0786            0.594 perf_6_month_avg
 7 regression 1        0.274          0.0786            0.594 forecast_6_month
 8 regression 1        0.274          0.0786            0.594 potential_issue 
 9 regression 2        0.302          0.186             0.635 forecast_3_month
10 regression 2        0.302          0.186             0.635 in_transit_qty  
# ℹ 150 more rows
# ℹ 5 more variables: feature_value <chr>, feature_weight <dbl>,
#   feature_desc <chr>, data <list>, prediction <dbl>
…
