MyLabJournal – 01 Machine Learning Fundamentals
…
library(broom)
library(umap)

2 Data

# STOCK PRICES
sp_500_prices_tbl <- read_rds("C:/Users/risho/OneDrive/Desktop/internship_sparks/ss24-bdml-rishon1234/ML/data/Business Decisions with Machine Learning/sp_500_prices_tbl.rds")
print(sp_500_prices_tbl)

#> # A tibble: 1,225,765 × 8
#>    symbol date        open  high   low close   volume adjusted
#>    <chr>  <date>     <dbl> <dbl> <dbl> <dbl>    <dbl>    <dbl>
#>  1 MSFT   2009-01-02  19.5  20.4  19.4  20.3 50084000     15.9
#>  2 MSFT   2009-01-05  20.2  20.7  20.1  20.5 61475200     16.0
#>  3 MSFT   2009-01-06  20.8  21    20.6  20.8 58083400     16.2
#>  4 MSFT   2009-01-07  20.2  20.3  19.5  19.5 72709900     15.2
#>  5 MSFT   2009-01-08  19.6  20.2  19.5  20.1 70255400     15.7
#>  6 MSFT   2009-01-09  20.2  20.3  19.4  19.5 49815300     15.2
#>  7 MSFT   2009-01-12  19.7  19.8  19.3  19.5 52163500     15.2
#>  8 MSFT   2009-01-13  19.5  20.0  19.5  19.8 65843500     15.5
#>  9 MSFT   2009-01-14  19.5  19.7  19.0  19.1 80257500     14.9
#> 10 MSFT   2009-01-15  19.1  19.3  18.5  19.2 96169800     15.0
#> # ℹ 1,225,755 more rows

# SECTOR INFORMATION
sp_500_index_tbl <- read_rds("C:/Users/risho/OneDrive/Desktop/internship_sparks/ss24-bdml-rishon1234/ML/data/Business Decisions with Machine Learning/sp_500_index_tbl.rds")
sp_500_index_tbl |> as_tibble() |> print()

#> # A tibble: 506 × 5
#>    symbol company                         weight sector              shares_held
#>    <chr>  <chr>                            <dbl> <chr>                     <dbl>
#>  1 MSFT   Microsoft Corporation           0.0359 Information Techno…    84853600
#>  2 AAPL   Apple Inc.                      0.0330 Information Techno…    49533308
#>  3 AMZN   Amazon.com Inc.                 0.0283 Consumer Discretio…     4510051
#>  4 BRK.B  Berkshire Hathaway Inc. Class B 0.0171 Financials             21364490
#>  5 FB     Facebook Inc. Class A           0.0168 Communication Serv…    26385216
#>  6 JNJ    Johnson & Johnson               0.0157 Health Care            29452358
#>  7 JPM    JPMorgan Chase & Co.            0.0151 Financials             36529800
#>  8 GOOG   Alphabet Inc. Class C           0.0147 Communication Serv…     3378423
#>  9 GOOGL  Alphabet Inc. Class A           0.0144 Communication Serv…     3282939
#> 10 XOM    Exxon Mobil Corporation         0.0141 Energy                 46493644
#> # ℹ 496 more rows
…
sp_500_daily_returns_tbl <- sp_500_prices_tbl %>%
  select(symbol, date, adjusted) %>%
  filter(date >= as.Date("2018-01-01")) %>%
  group_by(symbol) %>%
  mutate(adjusted_lag = lag(adjusted)) %>%
  filter(!is.na(adjusted_lag)) %>%
  mutate(difference = adjusted - adjusted_lag) %>%
  mutate(pct_return = difference / adjusted_lag) %>%
  select(symbol, date, pct_return) %>%
  ungroup()
print(sp_500_daily_returns_tbl)

#> # A tibble: 141,340 × 3
#>    symbol date       pct_return
#>    <chr>  <date>          <dbl>
#>  1 MSFT   2018-01-03   0.00465 
#>  2 MSFT   2018-01-04   0.00880 
#>  3 MSFT   2018-01-05   0.0124  
#>  4 MSFT   2018-01-08   0.00102 
#>  5 MSFT   2018-01-09  -0.000680
#>  6 MSFT   2018-01-10  -0.00453 
#>  7 MSFT   2018-01-11   0.00296 
#>  8 MSFT   2018-01-12   0.0173  
#>  9 MSFT   2018-01-16  -0.0140  
#> 10 MSFT   2018-01-17   0.0203  
#> # ℹ 141,330 more rows

2.2 Conversion to User-Item Format

The next step involves converting to a user-item format with the symbol in the first column and every other column the value of the daily returns (pct_return) for every stock at each date. The user in this case is the symbol (company), and the item in this case is the pct_return at each date.

Importing the correct results first (just in case I was not able to complete the last step).

sp_500_daily_returns_tbl <- read_rds("C:/Users/risho/OneDrive/Desktop/internship_sparks/ss24-bdml-rishon1234/ML/data/Business Decisions with Machine Learning/sp_500_daily_returns_tbl.rds")
print(sp_500_daily_returns_tbl)

#> # A tibble: 141,340 × 3
#>    symbol date       pct_return
#>    <chr>  <date>          <dbl>
#>  1 MSFT   2018-01-03   0.00465 
#>  2 MSFT   2018-01-04   0.00880 
#>  3 MSFT   2018-01-05   0.0124  
#>  4 MSFT   2018-01-08   0.00102 
#>  5 MSFT   2018-01-09  -0.000680
#>  6 MSFT   2018-01-10  -0.00453 
#>  7 MSFT   2018-01-11   0.00296 
#>  8 MSFT   2018-01-12   0.0173  
#>  9 MSFT   2018-01-16  -0.0140  
#> 10 MSFT   2018-01-17   0.0203  
#> # ℹ 141,330 more rows

And the conversion follows with:

stock_date_matrix_tbl <- sp_500_daily_returns_tbl %>%
  spread(key = date, value = pct_return, fill = 0)
stock_date_matrix_tbl |> as_tibble() |> print()

#> # A tibble: 502 × 283
#>    symbol `2018-01-03` `2018-01-04` `2018-01-05` `2018-01-08` `2018-01-09`
#>    <chr>         <dbl>        <dbl>        <dbl>        <dbl>        <dbl>
#>  1 A          0.0254       -0.00750     0.0160        0.00215     0.0246  
#>  2 AAL       -0.0123        0.00630    -0.000380     -0.00988    -0.000959
#>  3 AAP        0.00905       0.0369      0.0106       -0.00704    -0.00808 
#>  4 AAPL      -0.000174      0.00465     0.0114       -0.00371    -0.000115
#>  5 ABBV       0.0156       -0.00570     0.0174       -0.0160      0.00754 
#>  6 ABC        0.00372      -0.00222     0.0121        0.0166      0.00640 
#>  7 ABMD       0.0173        0.0175      0.0154        0.0271      0.00943 
#>  8 ABT        0.00221      -0.00170     0.00289      -0.00288     0.00170 
#>  9 ACN        0.00462       0.0118      0.00825       0.00799     0.00333 
#> 10 ADBE       0.0188        0.0120      0.0116       -0.00162     0.00897 
#> # ℹ 492 more rows
#> # ℹ 277 more variables: `2018-01-10` <dbl>, `2018-01-11` <dbl>,
#> #   `2018-01-12` <dbl>, `2018-01-16` <dbl>, `2018-01-17` <dbl>,
#> #   `2018-01-18` <dbl>, `2018-01-19` <dbl>, `2018-01-22` <dbl>,
#> #   `2018-01-23` <dbl>, `2018-01-24` <dbl>, `2018-01-25` <dbl>,
#> #   `2018-01-26` <dbl>, `2018-01-29` <dbl>, `2018-01-30` <dbl>,
#> #   `2018-01-31` <dbl>, `2018-02-01` <dbl>, `2018-02-02` <dbl>, …

2.3 K-Means Clustering

Importing the correct results first (just in case I was not able to complete the last step).

stock_date_matrix_tbl <- read_rds("C:/Users/risho/OneDrive/Desktop/internship_sparks/ss24-bdml-rishon1234/ML/data/Business Decisions with Machine Learning/stock_date_matrix_tbl.rds")
stock_date_matrix_tbl |> as_tibble() |> print()

#> # A tibble: 502 × 283
#>    symbol `2018-01-03` `2018-01-04` `2018-01-05` `2018-01-08` `2018-01-09`
#>    <chr>         <dbl>        <dbl>        <dbl>        <dbl>        <dbl>
#>  1 A          0.0254       -0.00750     0.0160        0.00215     0.0246  
#>  2 AAL       -0.0123        0.00630    -0.000380     -0.00988    -0.000959
#>  3 AAP        0.00905       0.0369      0.0106       -0.00704    -0.00808 
#>  4 AAPL      -0.000174      0.00465     0.0114       -0.00371    -0.000115
#>  5 ABBV       0.0156       -0.00570     0.0174       -0.0160      0.00754 
#>  6 ABC        0.00372      -0.00222     0.0121        0.0166      0.00640 
#>  7 ABMD       0.0173        0.0175      0.0154        0.0271      0.00943 
#>  8 ABT        0.00221      -0.00170     0.00289      -0.00288     0.00170 
#>  9 ACN        0.00462       0.0118      0.00825       0.00799     0.00333 
#> 10 ADBE       0.0188        0.0120      0.0116       -0.00162     0.00897 
#> # ℹ 492 more rows
#> # ℹ 277 more variables: `2018-01-10` <dbl>, `2018-01-11` <dbl>,
#> #   `2018-01-12` <dbl>, `2018-01-16` <dbl>, `2018-01-17` <dbl>,
#> #   `2018-01-18` <dbl>, `2018-01-19` <dbl>, `2018-01-22` <dbl>,
#> #   `2018-01-23` <dbl>, `2018-01-24` <dbl>, `2018-01-25` <dbl>,
#> #   `2018-01-26` <dbl>, `2018-01-29` <dbl>, `2018-01-30` <dbl>,
#> #   `2018-01-31` <dbl>, `2018-02-01` <dbl>, `2018-02-02` <dbl>, …
…
2.4 Finding Optimal K

kmeans_mapper <- function(center = 3) {
    stock_date_matrix_tbl %>%
        select(-symbol) %>%
        kmeans(centers = center, nstart = 20)
}

# Use purrr to map
kmeans_mapped_tbl <- tibble(centers = 1:30) %>%
    mutate(k_means = centers %>% map(kmeans_mapper)) %>%
    mutate(glance  = k_means %>% map(glance))
print(kmeans_mapped_tbl)

#> # A tibble: 30 × 3
#>    centers k_means  glance          
#>      <int> <list>   <list>          
#>  1       1 <kmeans> <tibble [1 × 4]>
#>  2       2 <kmeans> <tibble [1 × 4]>
#>  3       3 <kmeans> <tibble [1 × 4]>
#>  4       4 <kmeans> <tibble [1 × 4]>
#>  5       5 <kmeans> <tibble [1 × 4]>
#>  6       6 <kmeans> <tibble [1 × 4]>
#>  7       7 <kmeans> <tibble [1 × 4]>
#>  8       8 <kmeans> <tibble [1 × 4]>
#>  9       9 <kmeans> <tibble [1 × 4]>
#> 10      10 <kmeans> <tibble [1 × 4]>
#> # ℹ 20 more rows
…
2.5 UMAP Application

k_means_mapped_tbl <- read_rds("C:/Users/risho/OneDrive/Desktop/internship_sparks/ss24-bdml-rishon1234/ML/data/Business Decisions with Machine Learning/k_means_mapped_tbl.rds")
print(k_means_mapped_tbl)

#> # A tibble: 30 × 3
#>    centers k_means  glance          
#>      <int> <list>   <list>          
#>  1       1 <kmeans> <tibble [1 × 4]>
#>  2       2 <kmeans> <tibble [1 × 4]>
#>  3       3 <kmeans> <tibble [1 × 4]>
#>  4       4 <kmeans> <tibble [1 × 4]>
#>  5       5 <kmeans> <tibble [1 × 4]>
#>  6       6 <kmeans> <tibble [1 × 4]>
#>  7       7 <kmeans> <tibble [1 × 4]>
#>  8       8 <kmeans> <tibble [1 × 4]>
#>  9       9 <kmeans> <tibble [1 × 4]>
#> 10      10 <kmeans> <tibble [1 × 4]>
#> # ℹ 20 more rows
…
# Convert umap results to tibble with symbols
umap_results_tbl <- umap_results$layout %>%
    as_tibble() %>%
    bind_cols(
      stock_date_matrix_tbl %>% select(symbol)
  )

#> Warning: The `x` argument of `as_tibble.matrix()` must have unique column names if
#> `.name_repair` is omitted as of tibble 2.0.0.
#> ℹ Using compatibility `.name_repair`.

print(umap_results_tbl)

#> # A tibble: 502 × 3
#>         V1      V2 symbol
#>      <dbl>   <dbl> <chr> 
#>  1 -1.56    0.148  A     
#>  2 -0.351   2.50   AAL   
#>  3 -0.0288 -1.18   AAP   
#>  4 -2.97   -0.641  AAPL  
#>  5  0.109   0.227  ABBV  
#>  6  0.550  -0.406  ABC   
#>  7 -2.92   -0.836  ABMD  
#>  8 -1.23   -0.0930 ABT   
#>  9 -1.66   -0.527  ACN   
#> 10 -2.98   -1.08   ADBE  
#> # ℹ 492 more rows
…
2.6 Combination of K-Means and UMAP

Now the K-Means clusters and the UMAP 2D representation are being combined

Importing the correct results first (just in case I was not able to complete the last step).

k_means_mapped_tbl <- read_rds("C:/Users/risho/OneDrive/Desktop/internship_sparks/ss24-bdml-rishon1234/ML/data/Business Decisions with Machine Learning/k_means_mapped_tbl.rds")
umap_results_tbl   <- read_rds("C:/Users/risho/OneDrive/Desktop/internship_sparks/ss24-bdml-rishon1234/ML/data/Business Decisions with Machine Learning/umap_results_tbl.rds")
print(umap_results_tbl)

#> # A tibble: 502 × 3
#>         V1      V2 symbol
#>      <dbl>   <dbl> <chr> 
#>  1 -0.764   1.65   A     
#>  2 -2.70    0.455  AAL   
#>  3  0.739  -0.0320 AAP   
#>  4  0.0130  3.09   AAPL  
#>  5 -0.965  -0.0193 ABBV  
#>  6 -0.506  -0.659  ABC   
#>  7  0.436   3.10   ABMD  
#>  8 -0.262   1.35   ABT   
#>  9  0.0598  1.63   ACN   
#> 10  0.570   3.43   ADBE  
#> # ℹ 492 more rows
…
# Get the k_means_obj from the 10th center
k_means_obj <- k_means_mapped_tbl %>%
  pull(k_means) %>%
  pluck(10)

Next, the clusters from the k_means_obj with the umap_results_tbl are being combined.

umap_kmeans_results_tbl <- k_means_obj %>%
  augment(stock_date_matrix_tbl) %>%
  select(symbol, .cluster) %>%
  left_join(umap_results_tbl, by = "symbol") %>%
  left_join(sp_500_index_tbl %>% select(symbol, company, sector), by = "symbol")
print(umap_kmeans_results_tbl)

#> # A tibble: 502 × 6
#>    symbol .cluster      V1      V2 company                       sector         
#>    <chr>  <fct>      <dbl>   <dbl> <chr>                         <chr>          
#>  1 A      7        -0.764   1.65   Agilent Technologies Inc.     Health Care    
#>  2 AAL    2        -2.70    0.455  American Airlines Group Inc.  Industrials    
#>  3 AAP    10        0.739  -0.0320 Advance Auto Parts Inc.       Consumer Discr…
#>  4 AAPL   9         0.0130  3.09   Apple Inc.                    Information Te…
#>  5 ABBV   7        -0.965  -0.0193 AbbVie Inc.                   Health Care    
#>  6 ABC    5        -0.506  -0.659  AmerisourceBergen Corporation Health Care    
#>  7 ABMD   9         0.436   3.10   ABIOMED Inc.                  Health Care    
#>  8 ABT    7        -0.262   1.35   Abbott Laboratories           Health Care    
#>  9 ACN    7         0.0598  1.63   Accenture Plc Class A         Information Te…
#> 10 ADBE   9         0.570   3.43   Adobe Inc.                    Information Te…
#> # ℹ 492 more rows
…
