MyLabJournal – 03 Automated Machine Learning with H20
…
#> Registered S3 method overwritten by 'GGally':
#>   method from   
#>   +.gg   ggplot2

2 Load Data Definitions

definitions_raw_tbl   <- read_excel(file.path("C:/Users/risho/OneDrive/Desktop/internship_sparks/ss24-bdml-rishon1234/ML/data/Business Decisions with Machine Learning/data_definitions.xlsx"), sheet = 1, col_names = FALSE)

#> New names:
#> • `` -> `...1`
#> • `` -> `...2`

definitions_raw_tbl |> as_tibble() |> print()

#> # A tibble: 35 × 2
#>    ...1                    ...2             
#>    <chr>                   <chr>            
#>  1 Education               1 'Below College'
#>  2 <NA>                    2 'College'      
#>  3 <NA>                    3 'Bachelor'     
#>  4 <NA>                    4 'Master'       
#>  5 <NA>                    5 'Doctor'       
#>  6 <NA>                    <NA>             
#>  7 EnvironmentSatisfaction 1 'Low'          
#>  8 <NA>                    2 'Medium'       
#>  9 <NA>                    3 'High'         
#> 10 <NA>                    4 'Very High'    
#> # ℹ 25 more rows
…
employee_attrition_tbl <- read_csv("C:/Users/risho/OneDrive/Desktop/internship_sparks/ss24-bdml-rishon1234/ML/data/Business Decisions with Machine Learning/datasets-1067-1925-WA_Fn-UseC_-HR-Employee-Attrition.csv")

#> Rows: 1470 Columns: 35
#> ── Column specification ────────────────────────────────────────────────────────
#> Delimiter: ","
#> chr  (9): Attrition, BusinessTravel, Department, EducationField, Gender, Job...
#> dbl (26): Age, DailyRate, DistanceFromHome, Education, EmployeeCount, Employ...
#> 
#> ℹ Use `spec()` to retrieve the full column specification for this data.
#> ℹ Specify the column types or set `show_col_types = FALSE` to quiet this message.

employee_attrition_tbl |> as_tibble() |> print()

#> # A tibble: 1,470 × 35
#>      Age Attrition BusinessTravel    DailyRate Department       DistanceFromHome
#>    <dbl> <chr>     <chr>                 <dbl> <chr>                       <dbl>
#>  1    41 Yes       Travel_Rarely          1102 Sales                           1
#>  2    49 No        Travel_Frequently       279 Research & Deve…                8
#>  3    37 Yes       Travel_Rarely          1373 Research & Deve…                2
#>  4    33 No        Travel_Frequently      1392 Research & Deve…                3
#>  5    27 No        Travel_Rarely           591 Research & Deve…                2
#>  6    32 No        Travel_Frequently      1005 Research & Deve…                2
#>  7    59 No        Travel_Rarely          1324 Research & Deve…                3
#>  8    30 No        Travel_Rarely          1358 Research & Deve…               24
#>  9    38 No        Travel_Frequently       216 Research & Deve…               23
#> 10    36 No        Travel_Rarely          1299 Research & Deve…               27
#> # ℹ 1,460 more rows
#> # ℹ 29 more variables: Education <dbl>, EducationField <chr>,
#> #   EmployeeCount <dbl>, EmployeeNumber <dbl>, EnvironmentSatisfaction <dbl>,
#> #   Gender <chr>, HourlyRate <dbl>, JobInvolvement <dbl>, JobLevel <dbl>,
#> #   JobRole <chr>, JobSatisfaction <dbl>, MaritalStatus <chr>,
#> #   MonthlyIncome <dbl>, MonthlyRate <dbl>, NumCompaniesWorked <dbl>,
#> #   Over18 <chr>, OverTime <chr>, PercentSalaryHike <dbl>, …
…
